{
  "name": "EST_HR_SAPDataManagement",
  "description": "BOT will perform Data Operation in SAP based on Update/Create Request Type and Close the Ticket in IBM Case Manager",
  "main": "Main.xaml",
  "dependencies": {
    "Microsoft.Activities": "[1.0.1]",
    "MsgAttachmentExtractor": "[1.0.4]",
    "System.IO.Compression.ZipFile": "[4.3.0]",
    "System.Text.RegularExpressions": "[4.3.1]",
    "UiPath.Credentials.Activities": "[1.1.6479.13204]",
    "UiPath.DocuSign.Activities": "[1.1.4]",
    "UiPath.Excel.Activities": "[2.5.0]",
    "UiPath.Mail.Activities": "[1.12.3]",
    "UiPath.PDF.Activities": "[3.4.0]",
    "UiPath.System.Activities": "[21.4.1]",
    "UiPath.UIAutomation.Activities": "[21.4.4]",
    "UiPath.WebAPI.Activities": "[1.4.2]",
    "UiPathTeam.Mail.Converter.Activities": "[1.0.3]",
    "UiPathTeam.ReadSavedEmailToObject.Activities": "[1.2.0]"
  },
  "webServices": [],
  "entitiesStores": [],
  "schemaVersion": "4.0",
  "studioVersion": "20.10.6.0",
  "projectVersion": "1.0.7227.25680",
  "runtimeOptions": {
    "autoDispose": false,
    "isPausable": true,
    "requiresUserInteraction": true,
    "supportsPersistence": false,
    "excludedLoggedData": [
      "Private:*",
      "*password*"
    ],
    "executionType": "Workflow",
    "readyForPiP": false,
    "startsInPiP": false
  },
  "designOptions": {
    "projectProfile": "Developement",
    "outputType": "Process",
    "libraryOptions": {
      "includeOriginalXaml": false,
      "privateWorkflows": []
    },
    "processOptions": {
      "ignoredFiles": []
    },
    "fileInfoCollection": [],
    "modernBehavior": false
  },
  "arguments": {
    "input": [
      {
        "name": "OrchestratorQueueName",
        "type": "System.String, mscorlib, Version=4.0.0.0, Culture=neutral, PublicKeyToken=b77a5c561934e089",
        "required": false,
        "hasDefault": false
      }
    ],
    "output": []
  },
  "expressionLanguage": "VisualBasic",
  "entryPoints": [
    {
      "filePath": "Main.xaml",
      "uniqueId": "60313424-5caa-4441-b1b3-8e35e98cb928",
      "input": [],
      "output": []
    }
  ],
  "isTemplate": false,
  "templateProjectData": {},
  "publishData": {},
  "targetFramework": "Legacy"
}